name: Search
description: ''
endpoints:
  -
    httpMethods:
      - GET
    uri: api/v1/search
    metadata:
      groupName: Search
      groupDescription: ''
      subgroup: ''
      subgroupDescription: ''
      title: 'Search task / projects'
      description: 'Search in task / projects table by specified query'
      authenticated: false
      custom: []
    headers:
      Content-Type: application/json
      Accept: application/json
    urlParameters: []
    cleanUrlParameters: []
    queryParameters:
      size:
        name: size
        description: 'Number of rows. Default: 50'
        required: false
        example: 13
        type: integer
        custom: []
      page:
        name: page
        description: 'Number of page (pagination). Default: 1'
        required: false
        example: 14
        type: integer
        custom: []
      q:
        name: q
        description: 'search phrase'
        required: false
        example: maxime
        type: string
        custom: []
    cleanQueryParameters:
      size: 13
      page: 14
      q: maxime
    bodyParameters: []
    cleanBodyParameters: []
    fileParameters: []
    responses:
      -
        status: 200
        content: '{"total_rows": 100, "total_pages": "4", "current_page": 1, "has_more": true, "data": [{"id": "1", "name": "Example name", "type": "task", "creatd_at" : "2023-01-01 10:00:00"}, {"id": "1", "name": "Example project", "type": "project", "creatd_at" : "2023-01-01 10:00:00"}]}'
        headers: []
        description: ''
        custom: []
    responseFields: []
    auth: []
    controller: null
    method: null
    route: null
    custom: []
  -
    httpMethods:
      - GET
    uri: 'api/v1/search/{source}'
    metadata:
      groupName: Search
      groupDescription: ''
      subgroup: ''
      subgroupDescription: ''
      title: 'Search task / projects / user'
      description: 'Search task / projects / user in specified source table'
      authenticated: false
      custom: []
    headers:
      Content-Type: application/json
      Accept: application/json
    urlParameters:
      source:
        name: source
        description: 'search in source table (one of: tasks, users, projects)'
        required: false
        example: aut
        type: string
        custom: []
    cleanUrlParameters:
      source: aut
    queryParameters:
      size:
        name: size
        description: 'Number of rows. Default: 50'
        required: false
        example: 17
        type: integer
        custom: []
      page:
        name: page
        description: 'Number of page (pagination). Default: 1'
        required: false
        example: 10
        type: integer
        custom: []
      q:
        name: q
        description: 'search phrase'
        required: false
        example: commodi
        type: string
        custom: []
    cleanQueryParameters:
      size: 17
      page: 10
      q: commodi
    bodyParameters: []
    cleanBodyParameters: []
    fileParameters: []
    responses:
      -
        status: 200
        content: '{"total_rows": 100, "total_pages": "4", "current_page": 1, "has_more": true, "data": [{"id": "1", "name": "Example task", "project_id": 2, "project": "Project name"}]}'
        headers: []
        description: ''
        custom: []
      -
        status: 200
        content: '{"total_rows": 100, "total_pages": "4", "current_page": 1, "has_more": true, "data": [{"id": "1", "name": "Example task"}]}'
        headers: []
        description: ''
        custom: []
      -
        status: 200
        content: '{"total_rows": 100, "total_pages": "4", "current_page": 1, "has_more": true, "data": [{"id": "1", "firstname": "John", "lastname": "Doe"}]}'
        headers: []
        description: ''
        custom: []
    responseFields: []
    auth: []
    controller: null
    method: null
    route: null
    custom: []
