## Autogenerated by Scribe. DO NOT MODIFY.

name: Search
description: ''
endpoints:
  -
    httpMethods:
      - GET
    uri: api/v1/search
    metadata:
      groupName: Search
      groupDescription: ''
      subgroup: ''
      subgroupDescription: ''
      title: 'Search task / projects'
      description: 'Search in task / projects table by specified query'
      authenticated: false
      custom: []
    headers:
      Content-Type: application/json
      Accept: application/json
    urlParameters: []
    cleanUrlParameters: []
    queryParameters:
      size:
        name: size
        description: 'Number of rows. Default: 50'
        required: false
        example: 18
        type: integer
        custom: []
      page:
        name: page
        description: 'Number of page (pagination). Default: 1'
        required: false
        example: 18
        type: integer
        custom: []
      q:
        name: q
        description: 'search phrase'
        required: false
        example: tenetur
        type: string
        custom: []
    cleanQueryParameters:
      size: 18
      page: 18
      q: tenetur
    bodyParameters: []
    cleanBodyParameters: []
    fileParameters: []
    responses:
      -
        status: 200
        content: '{"total_rows": 100, "total_pages": "4", "current_page": 1, "has_more": true, "data": [{"id": "1", "name": "Example name", "type": "task", "creatd_at" : "2023-01-01 10:00:00"}, {"id": "1", "name": "Example project", "type": "project", "creatd_at" : "2023-01-01 10:00:00"}]}'
        headers: []
        description: ''
        custom: []
    responseFields: []
    auth: []
    controller: null
    method: null
    route: null
    custom: []
  -
    httpMethods:
      - GET
    uri: 'api/v1/search/{source}'
    metadata:
      groupName: Search
      groupDescription: ''
      subgroup: ''
      subgroupDescription: ''
      title: 'Search task / projects / user'
      description: 'Search task / projects / user in specified source table'
      authenticated: false
      custom: []
    headers:
      Content-Type: application/json
      Accept: application/json
    urlParameters:
      source:
        name: source
        description: 'search in source table (one of: tasks, users, projects)'
        required: false
        example: sit
        type: string
        custom: []
    cleanUrlParameters:
      source: sit
    queryParameters:
      size:
        name: size
        description: 'Number of rows. Default: 50'
        required: false
        example: 6
        type: integer
        custom: []
      page:
        name: page
        description: 'Number of page (pagination). Default: 1'
        required: false
        example: 4
        type: integer
        custom: []
      q:
        name: q
        description: 'search phrase'
        required: false
        example: blanditiis
        type: string
        custom: []
    cleanQueryParameters:
      size: 6
      page: 4
      q: blanditiis
    bodyParameters: []
    cleanBodyParameters: []
    fileParameters: []
    responses:
      -
        status: 200
        content: '{"total_rows": 100, "total_pages": "4", "current_page": 1, "has_more": true, "data": [{"id": "1", "name": "Example task", "project_id": 2, "project": "Project name"}]}'
        headers: []
        description: ''
        custom: []
      -
        status: 200
        content: '{"total_rows": 100, "total_pages": "4", "current_page": 1, "has_more": true, "data": [{"id": "1", "name": "Example task"}]}'
        headers: []
        description: ''
        custom: []
      -
        status: 200
        content: '{"total_rows": 100, "total_pages": "4", "current_page": 1, "has_more": true, "data": [{"id": "1", "firstname": "John", "lastname": "Doe"}]}'
        headers: []
        description: ''
        custom: []
    responseFields: []
    auth: []
    controller: null
    method: null
    route: null
    custom: []
