## Autogenerated by Scribe. DO NOT MODIFY.

name: Orders
description: ''
endpoints:
  -
    httpMethods:
      - POST
    uri: api/v1/order/create
    metadata:
      groupName: Orders
      groupDescription: ''
      subgroup: ''
      subgroupDescription: ''
      title: 'Create order'
      description: 'Create order and return redirect to payment URL.'
      authenticated: false
      custom: []
    headers:
      Content-Type: application/json
      Accept: application/json
      'Authorization:': 'Bearer {TOKEN}'
    urlParameters: []
    cleanUrlParameters: []
    queryParameters:
      package:
        name: package
        description: 'Package name (one of: p1)'
        required: false
        example: explicabo
        type: string
        custom: []
    cleanQueryParameters:
      package: explicabo
    bodyParameters: []
    cleanBodyParameters: []
    fileParameters: []
    responses:
      -
        status: 200
        content: '{"url": "https://..."}'
        headers: []
        description: ''
        custom: []
    responseFields: []
    auth: []
    controller: null
    method: null
    route: null
    custom: []
  -
    httpMethods:
      - GET
    uri: api/v1/invoices
    metadata:
      groupName: Orders
      groupDescription: ''
      subgroup: ''
      subgroupDescription: ''
      title: 'Get invoices list'
      description: 'Return invoices list.'
      authenticated: false
      custom: []
    headers:
      Content-Type: application/json
      Accept: application/json
      'Authorization:': 'Bearer {TOKEN}'
    urlParameters: []
    cleanUrlParameters: []
    queryParameters:
      size:
        name: size
        description: 'Number of rows. Default: 50'
        required: false
        example: 3
        type: integer
        custom: []
      page:
        name: page
        description: 'Number of page (pagination). Default: 1'
        required: false
        example: 13
        type: integer
        custom: []
    cleanQueryParameters:
      size: 3
      page: 13
    bodyParameters: []
    cleanBodyParameters: []
    fileParameters: []
    responses:
      -
        status: 200
        content: '{"total_rows": 100, "total_pages": "4", "current_page": 1, "has_more": true, "data": [{"order_id": 1, "full_number", "date": "2022-12-11", "nip": "0123456789", "name": "John Doe", "street": "Street name", "house_no": 12, "apartment_no": "1A", "zip": "00-123", "city": "London", "amount": 100, "gross": 123, "items": [], "generated": 1, "created_at": "2023-01-01 10:00:00"}]}'
        headers: []
        description: ''
        custom: []
    responseFields: []
    auth: []
    controller: null
    method: null
    route: null
    custom: []
  -
    httpMethods:
      - GET
    uri: 'api/v1/invoice/{id}'
    metadata:
      groupName: Orders
      groupDescription: ''
      subgroup: ''
      subgroupDescription: ''
      title: 'Get invoice PDF'
      description: 'Return invoice pdf.'
      authenticated: false
      custom: []
    headers:
      Content-Type: application/json
      Accept: application/json
      'Authorization:': 'Bearer {TOKEN}'
    urlParameters: []
    cleanUrlParameters: []
    queryParameters: []
    cleanQueryParameters: []
    bodyParameters: []
    cleanBodyParameters: []
    fileParameters: []
    responses: []
    responseFields: []
    auth: []
    controller: null
    method: null
    route: null
    custom: []
  -
    httpMethods:
      - GET
    uri: api/v1/validate-invoicing-data
    metadata:
      groupName: Orders
      groupDescription: ''
      subgroup: ''
      subgroupDescription: ''
      title: 'Validate invoicing data'
      description: 'Validate invoicing data.'
      authenticated: false
      custom: []
    headers:
      Content-Type: application/json
      Accept: application/json
      'Authorization:': 'Bearer {TOKEN}'
    urlParameters: []
    cleanUrlParameters: []
    queryParameters: []
    cleanQueryParameters: []
    bodyParameters: []
    cleanBodyParameters: []
    fileParameters: []
    responses: []
    responseFields: []
    auth: []
    controller: null
    method: null
    route: null
    custom: []
